{
    "association": {
        "containers": [
            "TruthMuons",
            "TruthElectrons"
        ],
        "particles": "overlapLepton",
        "file": "baseline-truth-kinematics.json"
    },
    "overlap_dr": 0.5
}
