{
    "btagging" : {
        "chars": [
            "JetFitter_isDefaults",
            "SV1_isDefaults",
            "JetFitterSecondaryVertex_isDefaults"
        ],
        "floats": [
            "pt_btagJes",
            "JetFitter_mass",
            "JetFitter_massUncorr",
            "JetFitterSecondaryVertex_mass",
            "JetFitterSecondaryVertex_energy"
        ],
        "halves": [
            "eta_btagJes", "absEta_btagJes",
            "JetFitter_energyFraction",
            "JetFitter_significance3d",
            "JetFitter_deltaphi",
            "JetFitter_deltaeta",
            "JetFitter_dRFlightDir",
            "SV1_masssvx",
            "SV1_efracsvx",
            "SV1_significance3d",
            "SV1_dstToMatLay",
            "SV1_deltaR",
            "SV1_Lxy",
            "SV1_L3d",
            "JetFitter_deltaR",
            "JetFitterSecondaryVertex_displacement3d",
            "JetFitterSecondaryVertex_displacement2d",
            "JetFitterSecondaryVertex_energyFraction",
            "JetFitterSecondaryVertex_minimumTrackRelativeEta",
            "JetFitterSecondaryVertex_maximumTrackRelativeEta",
            "JetFitterSecondaryVertex_averageTrackRelativeEta",
            "JetFitterSecondaryVertex_minimumAllJetTrackRelativeEta",
            "JetFitterSecondaryVertex_maximumAllJetTrackRelativeEta",
            "JetFitterSecondaryVertex_averageAllJetTrackRelativeEta",
            "deltaRToOfflineJet",
            "deltaPtToOfflineJet",
            "OfflineMatchedDL1r_pb",
            "OfflineMatchedDL1r_pc",
            "OfflineMatchedDL1r_pu"
        ],
        "doubles": [
        ],
        "ints_as_halves": [
            "JetFitter_nVTX",
            "JetFitter_nSingleTracks",
            "JetFitter_nTracksAtVtx",
            "JetFitter_N2Tpair",
            "SV1_N2Tpair",
            "SV1_NGTinSvx",
            "JetFitterSecondaryVertex_nTracks"
        ]
    },
    "jet" : {
        "ints": [
            "HadronConeExclTruthLabelID",
            "HadronConeExclExtendedTruthLabelID",
            "jetPtRank",
            "OfflineMatchedHadronConeExclTruthLabelID",
            "OfflineMatchedHadronConeExclExtendedTruthLabelID",
            "n_tracks",
            "n_fs_tracks"
        ],

        "floats": [
            "HadronConeExclTruthLabelPt",
            "pt"
        ],
        "halves": [
            "Jvt",
            "eta"
        ]
    },
    "event" : {
        "compressed": [
            "mcEventWeight",
            "eventNumber",
            "averageInteractionsPerCrossing",
            "actualInteractionsPerCrossing",
            "nPrimaryVertices",
            "primaryVertexDetectorZ",
            "primaryVertexDetectorZUncertainty"
        ]
    }
}
