{
    "file": "EMPFlowRetag.json",
    "dumper": {
        "calibration": {
            "file": "fragments/pflow-calibration.json"
        },
        "variables": {
            "btagging": {
                "floats": [
                    "SV1_masssvx",
                    "GN2v01_pb",
                    "GN2v01_pc",
                    "GN2v01_pu",
                    "GN2v01_ptau",
                    "GN2v01SimpleFlip_pb",
                    "GN2v01SimpleFlip_pc",
                    "GN2v01SimpleFlip_pu",
                    "GN2v01SimpleFlip_ptau"
               ]
            }
        }
    },
    "ip_method": "rich"
}
