{
    "run_jet_reco": true,

    
    "dumper":{       
        "jet_collection": "AntiKt4EMTopoJets",
        "calibration": {},
        "selection": {},
        "vertex_collection": "PrimaryVertices",
        "dl2_configs": [],
        "variables": {
            "jet": {
                "ints" : [
                    "GhostBHadronsFinalCount",
                    "GhostCHadronsFinalCount",
                    "HadronConeExclTruthLabelID",
                    "HadronConeExclExtendedTruthLabelID",
                    "PartonTruthLabelID",
                    "jetPtRank"
                ],
                "floats": [
                    "pt",
                    "eta",
                    "phi",
                    "mass",
                    "energy",
                    "GhostBHadronsFinalPt",
                    "Jvt"
                ]
            },
            "event": {
                "customs" : [
                    "mcEventWeight",
                    "eventNumber",
                    "averageInteractionsPerCrossing",
                    "actualInteractionsPerCrossing",
                    "nPrimaryVertices"
                ]
            },
            "default_mapping": {
                "file": "fragments/default-mapping.json"
            }
        },
        "flow": [{
            "type": "calocluster",
            "output_name": "jetConstituents",
            "accessor": "constituentLinks",
            "n_to_save": 40,
            "variables": {
                "floats": [
                    "AVG_LAR_Q",
                    "AVG_TILE_Q",
                    "BADLARQ_FRAC",
                    "CELL_SIGNIFICANCE",
                    "CENTER_LAMBDA",
                    "CENTER_MAG",
                    "EM_PROBABILITY",
                    "ENG_FRAC_MAX",
                    "ENG_BAD_CELLS",
                    "ENG_POS",
                    "FIRST_ENG_DENS",
                    "ISOLATION",
                    "LATERAL",
                    "LONGITUDINAL",
                    "MASS",
                    "N_BAD_CELLS",
                    "PTD",
                    "SIGNIFICANCE",
                    "SECOND_LAMBDA",
                    "SECOND_R",
                    "SECOND_TIME",
                    "time"
                ],
                "customs": [
                    "pt",
                    "energy",
                    "eta",
                    "phi",
                    "deta",
                    "dphi",
                    "dr",
                    "ncells"
                ]
            }
        }],
        "hits": {
            "container_name": "PixelClusters",
            "origin": "beamspot",
            "output_size": 200,
            "distance_to_jet": 0.1,
            "save_endcap_hits": true,
            "save_only_clean_hits": true,
            "do_overlap_removal": true,
            "save_sct": false,
            "save_hits": "all",
            "output_name": "hits",
            "variables": [
                "valid",
                "z_local",
                "dphi",
                "radius_local",
                "layer",
                "isBarrel",
                "j",
                "a",
                "b"
            ]
        },
        "tracks": [],
        "truths": [],
        "decorate": {
            "jet_aug": false,
            "btag_jes": false,
            "soft_muon": false,
            "track_sv_info": false,
            "lepton_decay_label": false
        },
        "btagging_link": ""
    },
    "ca_blocks": [
        {
            "block":"JetReco",
            "Duplicate_EMTopojets": true

        }
    ]
}
